%YAML 1.1
%TAG !u! tag:unity3d.com,2011:
--- !u!78 &1
TagManager:
  serializedVersion: 2
  tags:
  - Ship
  - ActivityMenu
  - ResultsMenu
  - MenuHandler
  - ShipMenu
  - ShipMenuFaction
  - ShipMenuActions
  - ShipMenuActionsFree
  - ShipMenuActionsAlways
  - ShipMenuActionsAttack
  - ShipMenuActionsEvade
  layers:
  - Default
  - TransparentFX
  - Ignore Raycast
  - 
  - Water
  - UI
  - 
  - 
  - PostProcessing
  - 
  - 
  - 
  - 
  - 
  - 
  - 
  - 
  - 
  - 
  - 
  - 
  - 
  - 
  - 
  - 
  - 
  - 
  - 
  - 
  - 
  - 
  - 
  m_SortingLayers:
  - name: Default
    uniqueID: 0
    locked: 0
